<?xml version="1.0" encoding="UTF-8" standalone="no"?>
<!DOCTYPE svg PUBLIC "-//W3C//DTD SVG 1.1//EN"
 "http://www.w3.org/Graphics/SVG/1.1/DTD/svg11.dtd">
<!-- Generated by graphviz version 2.47.3 (20210619.1520)
 -->
<!-- Title: dependencies Pages: 1 -->
<svg width="1031pt" height="174pt"
 viewBox="0.00 0.00 1031.00 173.80" xmlns="http://www.w3.org/2000/svg" xmlns:xlink="http://www.w3.org/1999/xlink">
<g id="graph0" class="graph" transform="scale(1 1) rotate(0) translate(4 169.8)">
<title>dependencies</title>
<polygon fill="white" stroke="transparent" points="-4,4 -4,-169.8 1027,-169.8 1027,4 -4,4"/>
<text text-anchor="middle" x="511.5" y="-8.2" font-family="sans-serif" font-size="14.00">dependencies</text>
<g id="clust1" class="cluster">
<title>cluster_DashboardModule</title>
<polygon fill="none" stroke="black" stroke-dasharray="1,5" points="8,-32.8 8,-157.8 1015,-157.8 1015,-32.8 8,-32.8"/>
</g>
<g id="clust2" class="cluster">
<title>cluster_DashboardModule_declarations</title>
<polygon fill="none" stroke="black" points="16,-40.8 16,-92.8 1007,-92.8 1007,-40.8 16,-40.8"/>
</g>
<!-- DashboardComponent -->
<g id="node1" class="node">
<title>DashboardComponent</title>
<polygon fill="#ffffb3" stroke="black" points="998.97,-84.8 857.03,-84.8 857.03,-48.8 998.97,-48.8 998.97,-84.8"/>
<text text-anchor="middle" x="928" y="-62.6" font-family="Times,serif" font-size="14.00">DashboardComponent</text>
</g>
<!-- DashboardModule -->
<g id="node6" class="node">
<title>DashboardModule</title>
<polygon fill="#8dd3c7" stroke="black" points="575.19,-149.8 572.19,-153.8 551.19,-153.8 548.19,-149.8 454.81,-149.8 454.81,-113.8 575.19,-113.8 575.19,-149.8"/>
<text text-anchor="middle" x="515" y="-127.6" font-family="Times,serif" font-size="14.00">DashboardModule</text>
</g>
<!-- DashboardComponent&#45;&gt;DashboardModule -->
<g id="edge1" class="edge">
<title>DashboardComponent&#45;&gt;DashboardModule</title>
<path fill="none" stroke="black" d="M928,-85.08C928,-106.12 928,-137.8 928,-137.8 928,-137.8 585.5,-137.8 585.5,-137.8"/>
<polygon fill="black" stroke="black" points="585.5,-134.3 575.5,-137.8 585.5,-141.3 585.5,-134.3"/>
</g>
<!-- EcomboxServerDetailsComponent -->
<g id="node2" class="node">
<title>EcomboxServerDetailsComponent</title>
<polygon fill="#ffffb3" stroke="black" points="838.68,-84.8 627.32,-84.8 627.32,-48.8 838.68,-48.8 838.68,-84.8"/>
<text text-anchor="middle" x="733" y="-62.6" font-family="Times,serif" font-size="14.00">EcomboxServerDetailsComponent</text>
</g>
<!-- EcomboxServerDetailsComponent&#45;&gt;DashboardModule -->
<g id="edge2" class="edge">
<title>EcomboxServerDetailsComponent&#45;&gt;DashboardModule</title>
<path fill="none" stroke="black" d="M733,-84.82C733,-102.17 733,-125.8 733,-125.8 733,-125.8 585.15,-125.8 585.15,-125.8"/>
<polygon fill="black" stroke="black" points="585.15,-122.3 575.15,-125.8 585.15,-129.3 585.15,-122.3"/>
</g>
<!-- EcomboxServerPieComponent -->
<g id="node3" class="node">
<title>EcomboxServerPieComponent</title>
<polygon fill="#ffffb3" stroke="black" points="609.91,-84.8 420.09,-84.8 420.09,-48.8 609.91,-48.8 609.91,-84.8"/>
<text text-anchor="middle" x="515" y="-62.6" font-family="Times,serif" font-size="14.00">EcomboxServerPieComponent</text>
</g>
<!-- EcomboxServerPieComponent&#45;&gt;DashboardModule -->
<g id="edge3" class="edge">
<title>EcomboxServerPieComponent&#45;&gt;DashboardModule</title>
<path fill="none" stroke="black" d="M515,-84.91C515,-84.91 515,-103.79 515,-103.79"/>
<polygon fill="black" stroke="black" points="511.5,-103.79 515,-113.79 518.5,-103.79 511.5,-103.79"/>
</g>
<!-- EcomboxStateComponent -->
<g id="node4" class="node">
<title>EcomboxStateComponent</title>
<polygon fill="#ffffb3" stroke="black" points="402.48,-84.8 239.52,-84.8 239.52,-48.8 402.48,-48.8 402.48,-84.8"/>
<text text-anchor="middle" x="321" y="-62.6" font-family="Times,serif" font-size="14.00">EcomboxStateComponent</text>
</g>
<!-- EcomboxStateComponent&#45;&gt;DashboardModule -->
<g id="edge4" class="edge">
<title>EcomboxStateComponent&#45;&gt;DashboardModule</title>
<path fill="none" stroke="black" d="M321,-84.82C321,-102.17 321,-125.8 321,-125.8 321,-125.8 444.68,-125.8 444.68,-125.8"/>
<polygon fill="black" stroke="black" points="444.68,-129.3 454.68,-125.8 444.68,-122.3 444.68,-129.3"/>
</g>
<!-- EcomboxUsageStatsComponent -->
<g id="node5" class="node">
<title>EcomboxUsageStatsComponent</title>
<polygon fill="#ffffb3" stroke="black" points="221.69,-84.8 24.31,-84.8 24.31,-48.8 221.69,-48.8 221.69,-84.8"/>
<text text-anchor="middle" x="123" y="-62.6" font-family="Times,serif" font-size="14.00">EcomboxUsageStatsComponent</text>
</g>
<!-- EcomboxUsageStatsComponent&#45;&gt;DashboardModule -->
<g id="edge5" class="edge">
<title>EcomboxUsageStatsComponent&#45;&gt;DashboardModule</title>
<path fill="none" stroke="black" d="M123,-85.08C123,-106.12 123,-137.8 123,-137.8 123,-137.8 444.61,-137.8 444.61,-137.8"/>
<polygon fill="black" stroke="black" points="444.61,-141.3 454.61,-137.8 444.61,-134.3 444.61,-141.3"/>
</g>
</g>
</svg>
